{
  "regions": [
    {
      "code": "01",
      "region": "Республика Адыгея"
    },
    {
      "code": "02",
      "region": "Республика Башкортостан"
    },
    {
      "code": "102",
      "region": "Республика Башкортостан"
    },
    {
      "code": "03",
      "region": "Республика Бурятия"
    },
    {
      "code": "04",
      "region": "Республика Алтай"
    },
    {
      "code": "05",
      "region": "Республика Дагестан"
    },
    {
      "code": "06",
      "region": "Республика Ингушетия"
    },
    {
      "code": "07",
      "region": "Кабардино-Балкарская республика"
    },
    {
      "code": "08",
      "region": "Республика Калмыкия"
    },
    {
      "code": "09",
      "region": "Карачаево-Черкесская республика"
    },
    {
      "code": "10",
      "region": "Республика Карелия"
    },
    {
      "code": "11",
      "region": "Республика Коми"
    },
    {
      "code": "12",
      "region": "Республика Марий-Эл"
    },
    {
      "code": "13",
      "region": "Республика Мордовия"
    },
    {
      "code": "113",
      "region": "Республика Мордовия"
    },
    {
      "code": "14",
      "region": "Республика Саха (Якутия)"
    },
    {
      "code": "15",
      "region": "Республика Северная Осетия"
    },
    {
      "code": "16",
      "region": "Республика Татарстан"
    },
    {
      "code": "116",
      "region": "Республика Татарстан"
    },
    {
      "code": "17",
      "region": "Республика Тыва"
    },
    {
      "code": "18",
      "region": "Удмуртская республика"
    },
    {
      "code": "118",
      "region": "Удмуртская республика"
    },
    {
      "code": "19",
      "region": "Республика Хакасия"
    },
    {
      "code": "21",
      "region": "Чувашская республика"
    },
    {
      "code": "121",
      "region": "Чувашская республика"
    },
    {
      "code": "22",
      "region": "Алтайский край"
    },
    {
      "code": "23",
      "region": "Краснодарский край"
    },
    {
      "code": "93",
      "region": "Краснодарский край"
    },
    {
      "code": "24",
      "region": "Красноярский край"
    },
    {
      "code": "124",
      "region": "Красноярский край"
    },
    {
      "code": "77",
      "region": "г. Москва"
    },
    {
      "code": "97",
      "region": "г. Москва"
    },
    {
      "code": "99",
      "region": "г. Москва"
    },
    {
      "code": "177",
      "region": "г. Москва"
    },
    {
      "code": "197",
      "region": "г. Москва"
    },
    {
      "code": "199",
      "region": "г. Москва"
    },
    {
      "code": "777",
      "region": "г. Москва"
    },
    {
      "code": "797",
      "region": "г. Москва"
    }
  ]
}